,0,5,10,15,20,25,30
0,0.1,0.5,0.2,0.7,0.21,0.85,0.9
5,0.3,0.4,0.7,0.8,0.65,0.21,0.65
10,0.2,0.9,0.2,0.6,0.23,0.51,0.89
15,0.6,0.5,0.4,0.6,0.22,0.12,0.11
20,0.8,0.85,0.12,0.45,0.5,0.97,0.64
25,0.9,0.32,0.32,0.89,0.1,0.87,0.21
30,0.11,0.24,0.89,0.52,0.33,0.32,0.1
