{
  "project_info": {
    "project_number": "199657654896",
    "firebase_url": "https://diviningrodfirebase.firebaseio.com",
    "project_id": "diviningrodfirebase",
    "storage_bucket": "diviningrodfirebase.appspot.com"
  },
  "client": [
    {
      "client_info": {
        "mobilesdk_app_id": "1:199657654896:android:9b45a0181684e881",
        "android_client_info": {
          "package_name": "com.example.diviningrodv32"
        }
      },
      "oauth_client": [
        {
          "client_id": "199657654896-fu7nrf1kqchmsdcts1ndmg1j8qrbo99u.apps.googleusercontent.com",
          "client_type": 1,
          "android_info": {
            "package_name": "com.example.diviningrodv32",
            "certificate_hash": "d85624ba82ad29ca8ec30a019c3f139c25f0e367"
          }
        },
        {
          "client_id": "199657654896-qgshuvrc8djb8klj6klemd4ae438pjb3.apps.googleusercontent.com",
          "client_type": 1,
          "android_info": {
            "package_name": "com.example.diviningrodv32",
            "certificate_hash": "8cb562aa368239611df8cf9e188e22499458577d"
          }
        },
        {
          "client_id": "199657654896-k3ah9f4b2ilcbschq8ich7lvecm75ptv.apps.googleusercontent.com",
          "client_type": 3
        }
      ],
      "api_key": [
        {
          "current_key": "AIzaSyB1-3s9JAc9FN-UVwRLRgPg_I5YzBoFaPc"
        }
      ],
      "services": {
        "appinvite_service": {
          "other_platform_oauth_client": [
            {
              "client_id": "199657654896-k3ah9f4b2ilcbschq8ich7lvecm75ptv.apps.googleusercontent.com",
              "client_type": 3
            }
          ]
        }
      }
    }
  ],
  "configuration_version": "1"
}